Lterdatasampler – NEOF Tidyverse
…
Install and load

Installation and loading instruction below:

install.packages("lterdatasampler")
library("lterdatasampler")

Accessing data

Once you have installed and loaded the package you can access one of the various datasets as a tibble like below:

tibble::as_tibble(lterdatasampler::and_vertebrates)

# A tibble: 32,209 × 16
    year sitecode section reach  pass unitnum unittype vert_index pitnumber
   <dbl> <chr>    <chr>   <chr> <dbl>   <dbl> <chr>         <dbl>     <dbl>
 1  1987 MACKCC-L CC      L         1       1 R                 1        NA
 2  1987 MACKCC-L CC      L         1       1 R                 2        NA
 3  1987 MACKCC-L CC      L         1       1 R                 3        NA
 4  1987 MACKCC-L CC      L         1       1 R                 4        NA
 5  1987 MACKCC-L CC      L         1       1 R                 5        NA
 6  1987 MACKCC-L CC      L         1       1 R                 6        NA
 7  1987 MACKCC-L CC      L         1       1 R                 7        NA
 8  1987 MACKCC-L CC      L         1       1 R                 8        NA
 9  1987 MACKCC-L CC      L         1       1 R                 9        NA
10  1987 MACKCC-L CC      L         1       1 R                10        NA
# ℹ 32,199 more rows
# ℹ 7 more variables: species <chr>, length_1_mm <dbl>, length_2_mm <dbl>,
#   weight_g <dbl>, clip <chr>, sampledate <date>, notes <chr>
…
